MIPS.vcd
$date
	Sat Dec 14 00:36:56 2019
$end
$version
	Icarus Verilog
$end
$timescale
	10ps
$end
$scope module SingleCycle_tb $end
$var wire 5 ! shamt [4:0] $end
$var wire 6 " funct [5:0] $end
$var wire 1 # WEN $end
$var wire 5 $ Rt [4:0] $end
$var wire 5 % Rs [4:0] $end
$var wire 32 & ReadDataMem [31:0] $end
$var wire 5 ' Rd [4:0] $end
$var wire 6 ( OpCode [5:0] $end
$var wire 1 ) OEN $end
$var wire 26 * JAddr [25:0] $end
$var wire 32 + IR_addr [31:0] $end
$var wire 32 , IR [31:0] $end
$var wire 16 - IAddr [15:0] $end
$var wire 32 . Data2Mem [31:0] $end
$var wire 1 / CEN $end
$var wire 7 0 A [6:0] $end
$var reg 1 1 clk $end
$var reg 1 2 rst_n $end
$var integer 32 3 error [31:0] $end
$var integer 32 4 i [31:0] $end
$var integer 32 5 temp [31:0] $end
$scope module Data_memory $end
$var wire 1 6 CLK $end
$var wire 1 7 _CEN $end
$var wire 1 8 _CLK $end
$var wire 1 9 _OEN $end
$var wire 1 : _OENi $end
$var wire 32 ; _Q [31:0] $end
$var wire 1 < _WEN $end
$var wire 1 = re_flag $end
$var wire 1 > re_data_flag $end
$var wire 32 ? _D [31:0] $end
$var wire 7 @ _A [6:0] $end
$var wire 1 # WEN $end
$var wire 32 A Q [31:0] $end
$var wire 1 ) OEN $end
$var wire 32 B D [31:0] $end
$var wire 1 / CEN $end
$var wire 7 C A [6:0] $end
$var reg 7 D Ai [6:0] $end
$var reg 1 E CENi $end
$var reg 32 F Di [31:0] $end
$var reg 1 G LAST_CLK $end
$var reg 7 H LAST_NOT_A [6:0] $end
$var reg 1 I LAST_NOT_CEN $end
$var reg 1 J LAST_NOT_CLK_MINH $end
$var reg 1 K LAST_NOT_CLK_MINL $end
$var reg 1 L LAST_NOT_CLK_PER $end
$var reg 32 M LAST_NOT_D [31:0] $end
$var reg 1 N LAST_NOT_WEN $end
$var reg 32 O LAST_Qi [31:0] $end
$var reg 7 P LATCHED_A [6:0] $end
$var reg 1 Q LATCHED_CEN $end
$var reg 32 R LATCHED_D [31:0] $end
$var reg 1 S LATCHED_WEN $end
$var reg 7 T NOT_A [6:0] $end
$var reg 1 U NOT_A0 $end
$var reg 1 V NOT_A1 $end
$var reg 1 W NOT_A2 $end
$var reg 1 X NOT_A3 $end
$var reg 1 Y NOT_A4 $end
$var reg 1 Z NOT_A5 $end
$var reg 1 [ NOT_A6 $end
$var reg 1 \ NOT_CEN $end
$var reg 1 ] NOT_CLK_MINH $end
$var reg 1 ^ NOT_CLK_MINL $end
$var reg 1 _ NOT_CLK_PER $end
$var reg 32 ` NOT_D [31:0] $end
$var reg 1 a NOT_D0 $end
$var reg 1 b NOT_D1 $end
$var reg 1 c NOT_D10 $end
$var reg 1 d NOT_D11 $end
$var reg 1 e NOT_D12 $end
$var reg 1 f NOT_D13 $end
$var reg 1 g NOT_D14 $end
$var reg 1 h NOT_D15 $end
$var reg 1 i NOT_D16 $end
$var reg 1 j NOT_D17 $end
$var reg 1 k NOT_D18 $end
$var reg 1 l NOT_D19 $end
$var reg 1 m NOT_D2 $end
$var reg 1 n NOT_D20 $end
$var reg 1 o NOT_D21 $end
$var reg 1 p NOT_D22 $end
$var reg 1 q NOT_D23 $end
$var reg 1 r NOT_D24 $end
$var reg 1 s NOT_D25 $end
$var reg 1 t NOT_D26 $end
$var reg 1 u NOT_D27 $end
$var reg 1 v NOT_D28 $end
$var reg 1 w NOT_D29 $end
$var reg 1 x NOT_D3 $end
$var reg 1 y NOT_D30 $end
$var reg 1 z NOT_D31 $end
$var reg 1 { NOT_D4 $end
$var reg 1 | NOT_D5 $end
$var reg 1 } NOT_D6 $end
$var reg 1 ~ NOT_D7 $end
$var reg 1 !" NOT_D8 $end
$var reg 1 "" NOT_D9 $end
$var reg 1 #" NOT_WEN $end
$var reg 32 $" Qi [31:0] $end
$var reg 1 %" WENi $end
$scope function valid_address $end
$var reg 7 &" a [6:0] $end
$var reg 1 '" valid_address $end
$upscope $end
$scope task latch_inputs $end
$upscope $end
$scope task mem_cycle $end
$upscope $end
$scope task process_violations $end
$upscope $end
$scope task read_mem $end
$var reg 1 (" r_wb $end
$var reg 1 )" xflag $end
$upscope $end
$scope task update_last_notifiers $end
$upscope $end
$scope task update_logic $end
$upscope $end
$scope task update_notifier_buses $end
$upscope $end
$scope task write_mem $end
$var reg 7 *" a [6:0] $end
$var reg 32 +" d [31:0] $end
$upscope $end
$scope task write_mem_x $end
$var reg 7 ," a [6:0] $end
$upscope $end
$scope task x_inputs $end
$var integer 32 -" n [31:0] $end
$upscope $end
$scope task x_mem $end
$var integer 32 ." n [31:0] $end
$upscope $end
$upscope $end
$scope module i_rom $end
$var wire 7 /" addr [6:0] $end
$var reg 32 0" data [31:0] $end
$upscope $end
$scope module scmips $end
$var wire 1 / CEN $end
$var wire 32 1" Data2Mem [31:0] $end
$var wire 32 2" IR [31:0] $end
$var wire 32 3" IR_addr [31:0] $end
$var wire 32 4" ReadDataMem [31:0] $end
$var wire 32 5" and_out [31:0] $end
$var wire 1 1 clk $end
$var wire 32 6" or_out [31:0] $end
$var wire 1 2 rst_n $end
$var wire 32 7" sub_out [31:0] $end
$var wire 32 8" srl_out [31:0] $end
$var wire 32 9" slt_out [31:0] $end
$var wire 32 :" sll_out [31:0] $end
$var wire 32 ;" shift_ext_I_addr [31:0] $end
$var wire 5 <" shamt [4:0] $end
$var wire 6 =" op_code [5:0] $end
$var wire 32 >" jump_addr [31:0] $end
$var wire 6 ?" funct [5:0] $end
$var wire 32 @" ext_I_addr [31:0] $end
$var wire 32 A" branch_addr [31:0] $end
$var wire 32 B" add_out [31:0] $end
$var wire 1 # WEN $end
$var wire 5 C" Rt [4:0] $end
$var wire 5 D" Rs [4:0] $end
$var wire 5 E" Rd [4:0] $end
$var wire 32 F" PC_8 [31:0] $end
$var wire 32 G" PC_4 [31:0] $end
$var wire 1 ) OEN $end
$var wire 26 H" J_addr [25:0] $end
$var wire 16 I" I_addr [15:0] $end
$var wire 7 J" A [6:0] $end
$var reg 32 K" PC [31:0] $end
$var reg 32 L" R31 [31:0] $end
$var reg 32 M" candidate_add [31:0] $end
$var reg 32 N" data_Rs [31:0] $end
$var reg 32 O" data_Rt [31:0] $end
$var reg 32 P" net_PC [31:0] $end
$var reg 5 Q" prev_Rd [4:0] $end
$var reg 5 R" prev_Rt [4:0] $end
$var reg 32 S" prev_to_Rd [31:0] $end
$var reg 32 T" prev_to_Rt [31:0] $end
$var reg 1 ) reg_OEN $end
$var reg 1 # reg_WEN $end
$var reg 32 U" to_Rd [31:0] $end
$var reg 32 V" to_Rt [31:0] $end
$var integer 32 W" tempvar [31:0] $end
$upscope $end
$upscope $end
$enddefinitions $end
#0
$dumpvars
bx W"
bx V"
bx U"
bx T"
bx S"
bx R"
bx Q"
bx P"
bx O"
bx N"
bx M"
bx L"
bx K"
bx J"
bx I"
bx H"
bx G"
bx F"
bx E"
bx D"
bx C"
bx B"
bx A"
bx @"
bx ?"
bx00 >"
bx ="
bx <"
bx00 ;"
bx :"
b0x 9"
bx 8"
bx 7"
bx 6"
bx 5"
bx 4"
bx 3"
bx 2"
bx 1"
bx 0"
bx /"
bx ."
bx -"
bx ,"
bx +"
bx *"
x)"
x("
x'"
bx &"
x%"
bx $"
x#"
x""
x!"
x~
x}
x|
x{
xz
xy
xx
xw
xv
xu
xt
xs
xr
xq
xp
xo
xn
xm
xl
xk
xj
xi
xh
xg
xf
xe
xd
xc
xb
xa
bx `
x_
x^
x]
x\
x[
xZ
xY
xX
xW
xV
xU
bx T
xS
bx R
xQ
bx P
bx O
xN
bx M
xL
xK
xJ
xI
bx H
1G
bx F
xE
bx D
bx C
bx B
bx A
bx @
bx ?
x>
x=
x<
bx ;
x:
x9
18
x7
16
bx 5
b0 4
b0 3
12
01
bx 0
x/
bx .
bx -
bx ,
bx +
bx *
x)
bx (
bx '
bx &
bx %
bx $
x#
bx "
bx !
$end
#200
02
#500
b0 @
0>
0=
17
b0 ?
b0 0
b0 C
b0 J"
1<
1/
bz &
bz A
bz 4"
1:
19
b0 9"
b0 6"
b0 5"
b100 A"
b0 B"
b0 M"
1#
1)
b0 7"
b0 N"
b0 V"
b0 :"
b0 8"
b0 .
b0 B
b0 1"
b0 O"
b0 U"
b0 ;"
b0 ="
b0 D"
b0 C"
b0 E"
b0 <"
b0 ?"
b0 @"
b0 I"
b0 H"
b0 *
b0 -
b0 "
b0 !
b0 '
b0 $
b0 %
b0 (
b0 ,
b0 0"
b0 2"
b0 >"
b100 P"
b0 /"
b100 G"
b1000 F"
b0 +
b0 3"
b0 K"
0G
08
b100000 W"
b100000 5
06
11
#1000
1G
b0 F
b0 D
1%"
1E
1Q
1S
b0 R
b0 P
18
16
01
#1500
b0 L"
b0 T"
b0 S"
b0 Q"
b0 R"
0G
08
b100000 5
b100000 W"
06
11
#2000
1G
18
16
01
#2200
12
#2500
b110 @
b110 0
b110 C
b110 J"
b11000 ;"
b110 B"
b110 M"
b10 ="
b110 ?"
b110 @"
b110 I"
b11000 >"
b110 H"
b110 *
b110 -
b110 "
b10 (
b1000000000000000000000000110 ,
b1000000000000000000000000110 0"
b1000000000000000000000000110 2"
b11000 P"
b1 /"
b100000 A"
b1000 G"
b1100 F"
b100 +
b100 3"
b100 K"
0G
08
b100000 5
06
11
#3000
b1 4
1G
b110 D
b110 P
18
16
01
#3500
b100 @
b100 0
b100 C
b100 J"
b100 V"
b10000 ;"
b100 B"
b100 M"
b11100 P"
b1000 ="
b1010 C"
b100 ?"
b100 @"
b100 I"
b1010000000000000010000 >"
b10100000000000000100 H"
b10100000000000000100 *
b100 -
b100 "
b1010 $
b1000 (
b100000000010100000000000000100 ,
b100000000010100000000000000100 0"
b100000000010100000000000000100 2"
b110 /"
b101100 A"
b11100 G"
b100000 F"
b11000 +
b11000 3"
b11000 K"
0G
08
b100000 5
06
11
#4000
b10 4
1G
b100 D
b100 P
18
16
01
#4500
b1111 @
b1111 0
b1111 C
b1111 J"
b1111 V"
b111100 ;"
b1111 B"
b1111 M"
b0 ?
b1101 C"
b1111 ?"
b1111 @"
b1111 I"
b1101000000000000111100 >"
b11010000000000001111 H"
b11010000000000001111 *
b1111 -
b1111 "
b1101 $
b0 9"
b0 6"
b100000000011010000000000001111 ,
b100000000011010000000000001111 0"
b100000000011010000000000001111 2"
b0 :"
b0 8"
b0 7"
b0 .
b0 B
b0 1"
b0 O"
b100000 P"
b111 /"
b1010 R"
b100 T"
b1011100 A"
b100000 G"
b100100 F"
b11100 +
b11100 3"
b11100 K"
0G
08
b100000 5
06
11
#5000
b11 4
1G
b1111 D
b1111 P
18
16
01
#5500
b11000 @
b11000 0
b11000 C
b11000 J"
b101000 L"
b0 V"
b1100000 ;"
b11000 B"
b11000 M"
b11 ="
b0 C"
b11000 ?"
b11000 @"
b11000 I"
b1100000 >"
b11000 H"
b11000 *
b11000 -
b11000 "
b0 $
b11 (
b0 ?
b1100000000000000000000011000 ,
b1100000000000000000000011000 0"
b1100000000000000000000011000 2"
b0 9"
b0 6"
b1100000 P"
b1000 /"
b0 :"
b0 8"
b0 7"
b0 .
b0 B
b0 1"
b0 O"
b10000100 A"
b100100 G"
b101000 F"
b100000 +
b100000 3"
b100000 K"
b1111 T"
b1101 R"
0G
08
b100000 5
06
11
#6000
b100 4
1G
b11000 D
b11000 P
18
16
01
#6500
b0 @
b0 0
b0 C
b0 J"
b100 V"
b10010000010000000 ;"
b0 B"
b0 M"
b1100100 P"
b0 ="
b1010 C"
b1001 E"
b100000 ?"
b100100000100000 @"
b100100000100000 I"
b1010010010000010000000 >"
b10100100100000100000 H"
b10100100100000100000 *
b100100000100000 -
b100000 "
b1001 '
b1010 $
b0 (
b10100100100000100000 ,
b10100100100000100000 0"
b10100100100000100000 2"
b101000 L"
b11000 /"
b0 R"
b0 T"
b10010000011100100 A"
b1100100 G"
b1101000 F"
b1100000 +
b1100000 3"
b1100000 K"
0G
08
b100000 5
06
11
#7000
b101 4
1G
b0 D
b0 P
18
16
01
#7500
b101000 5"
b1010000 @
b101000 N"
b0 V"
b100000 ;"
b11111 D"
b0 C"
b0 E"
b1000 ?"
b1000 @"
b1000 I"
b1111100000000000000000100000 >"
b11111000000000000000001000 H"
b11111000000000000000001000 *
b1000 -
b1000 "
b0 '
b0 $
b11111 %
b1010000 0
b1010000 C
b1010000 J"
b0 U"
b101000 ?
b11111000000000000000001000 ,
b11111000000000000000001000 0"
b11111000000000000000001000 2"
b1010000 B"
b101000 M"
b0 9"
b101000 6"
b101000 P"
b11001 /"
b101000 :"
b101000 8"
b0 7"
b101000 .
b101000 B
b101000 1"
b101000 O"
b10001000 A"
b1101000 G"
b1101100 F"
b1100100 +
b1100100 3"
b1100100 K"
b100 T"
b1001 Q"
b1010 R"
0G
08
b100000 5
06
11
#8000
b110 4
1G
b101000 F
b1010000 D
b101000 R
b1010000 P
18
16
01
#8500
b0 @
b0 6"
b0 N"
b11000000010000000 ;"
b101100 P"
b0 0
b0 C
b0 J"
b0 U"
b0 ?
b1011 D"
b1100 E"
b100000 ?"
b110000000100000 @"
b110000000100000 I"
b101100000011000000010000000 >"
b1011000000110000000100000 H"
b1011000000110000000100000 *
b110000000100000 -
b100000 "
b1100 '
b1011 %
b0 B"
b0 M"
b0 5"
b1011000000110000000100000 ,
b1011000000110000000100000 0"
b1011000000110000000100000 2"
b0 :"
b0 8"
b0 7"
b0 .
b0 B
b0 1"
b0 O"
b1010 /"
b0 Q"
b0 R"
b0 T"
b11000000010101100 A"
b101100 G"
b110000 F"
b101000 +
b101000 3"
b101000 K"
0G
08
b100000 5
06
11
#9000
b111 4
1G
b0 F
b0 D
b0 R
b0 P
18
b1 3
16
01
#9500
1=
07
0/
bx &
bx A
bx 4"
0:
09
0)
bx V"
b0 ;"
b100011 ="
b1001 D"
b1 C"
b0 E"
b0 ?"
b0 @"
b0 I"
b100100001000000000000000000 >"
b1001000010000000000000000 H"
b1001000010000000000000000 *
b0 -
b0 "
b0 '
b1 $
b1001 %
b100011 (
b10001101001000010000000000000000 ,
b10001101001000010000000000000000 0"
b10001101001000010000000000000000 2"
b110000 P"
b1011 /"
b110000 A"
b110000 G"
b110100 F"
b101100 +
b101100 3"
b101100 K"
b1100 Q"
0G
08
b100000 5
06
11
#10000
b1000 4
b1111111111111111111111111111111 V"
b1111111111111111111111111111111 &
b1111111111111111111111111111111 A
b1111111111111111111111111111111 4"
1G
b1111111111111111111111111111111 ;
b1111111111111111111111111111111 $"
1'"
b0 &"
0)"
1("
0E
0Q
18
16
01
#10500
b100 @
b100 0
b100 C
b100 J"
b10000 ;"
b100 B"
b100 M"
b0 ?
b10 C"
b100 ?"
b100 @"
b100 I"
b100100010000000000000010000 >"
b1001000100000000000000100 H"
b1001000100000000000000100 *
b100 -
b100 "
b10 $
b0 9"
b0 6"
b10001101001000100000000000000100 ,
b10001101001000100000000000000100 0"
b10001101001000100000000000000100 2"
b0 :"
b0 8"
b0 7"
b0 .
b0 B
b0 1"
b0 O"
b110100 P"
b1100 /"
b0 Q"
b1 R"
b1111111111111111111111111111111 T"
b1000100 A"
b110100 G"
b111000 F"
b110000 +
b110000 3"
b110000 K"
0G
08
b100000 5
06
11
#11000
b1001 4
b11111111111111111111111100000111 V"
b11111111111111111111111100000111 &
b11111111111111111111111100000111 A
b11111111111111111111111100000111 4"
1G
b11111111111111111111111100000111 ;
b11111111111111111111111100000111 $"
b100 &"
b100 D
b1111111111111111111111111111111 O
b100 P
18
16
01
#11500
b1110 @
0=
17
1/
bz &
bz A
bz 4"
1:
19
b11111111111111111111111100000111 5"
b1110 0
b1110 C
b1110 J"
1)
b11111111111111111111111100000111 N"
b1111111111111111111111111111111 V"
b1010000010101000 ;"
b11111111111111111111111000001110 B"
b11111111111111111111111100000111 M"
b0 ="
b10 D"
b1 C"
b101 E"
b101010 ?"
b10100000101010 @"
b10100000101010 I"
b1000001001010000010101000 >"
b10000010010100000101010 H"
b10000010010100000101010 *
b10100000101010 -
b101010 "
b101 '
b1 $
b10 %
b0 (
b11111111111111111111111100000111 ?
b10000010010100000101010 ,
b10000010010100000101010 0"
b10000010010100000101010 2"
b11111111111111111111111100000111 6"
b111000 P"
b1101 /"
b11111111111111111111111100000111 :"
b11111111111111111111111100000111 8"
b0 7"
b11111111111111111111111100000111 .
b11111111111111111111111100000111 B
b11111111111111111111111100000111 1"
b11111111111111111111111100000111 O"
b1010000011100000 A"
b111000 G"
b111100 F"
b110100 +
b110100 3"
b110100 K"
b11111111111111111111111100000111 T"
b10 R"
0G
08
b100000 5
06
11
#12000
b1010 4
1G
b11111111111111111111111100000111 F
b1110 D
1E
b11111111111111111111111100000111 O
1Q
b11111111111111111111111100000111 R
b1110 P
18
16
01
#12500
b10 @
b0 N"
b1000 ;"
b10 0
b10 C
b10 J"
b0 V"
b0 ?
b100 ="
b101 D"
b0 C"
b0 E"
b10 ?"
b10 @"
b10 I"
b10100000000000000000001000 >"
b101000000000000000000010 H"
b101000000000000000000010 *
b10 -
b10 "
b0 '
b0 $
b101 %
b100 (
b10 B"
b10 M"
b0 6"
b0 5"
b10000101000000000000000000010 ,
b10000101000000000000000000010 0"
b10000101000000000000000000010 2"
b0 :"
b0 8"
b0 7"
b0 .
b0 B
b0 1"
b0 O"
b1000100 P"
b1110 /"
b101 Q"
b1 R"
b1111111111111111111111111111111 T"
b1000100 A"
b111100 G"
b1000000 F"
b111000 +
b111000 3"
b111000 K"
0G
08
b100000 5
06
11
#13000
b1011 4
1G
b0 F
b10 D
b0 R
b10 P
18
16
01
#13500
b0 @
b0 0
b0 C
b0 J"
b100 V"
b10010000010000000 ;"
b0 B"
b0 M"
b0 ="
b1001 D"
b1010 C"
b1001 E"
b100000 ?"
b100100000100000 @"
b100100000100000 I"
b100101010010010000010000000 >"
b1001010100100100000100000 H"
b1001010100100100000100000 *
b100100000100000 -
b100000 "
b1001 '
b1010 $
b1001 %
b0 (
b1001010100100100000100000 ,
b1001010100100100000100000 0"
b1001010100100100000100000 2"
b1001000 P"
b10001 /"
b10010000011001000 A"
b1001000 G"
b1001100 F"
b1000100 +
b1000100 3"
b1000100 K"
b0 T"
b0 Q"
b0 R"
0G
08
b100000 5
06
11
#14000
b1100 4
1G
b0 D
b0 P
18
16
01
#14500
b1111000 @
b11111111111111111111111111100000 ;"
b1111000 0
b1111000 C
b1111000 J"
b0 V"
b101000 U"
b0 ?
b101 ="
b1100 D"
b1001 C"
b11111 E"
b11111 <"
b111000 ?"
b11111111111111111111111111111000 @"
b1111111111111000 I"
b110001001111111111111100000 >"
b1100010011111111111111000 H"
b1100010011111111111111000 *
b1111111111111000 -
b111000 "
b11111 !
b11111 '
b1001 $
b1100 %
b101 (
b11111111111111111111111111111000 B"
b11111111111111111111111111111000 M"
b0 9"
b0 6"
b10101100010011111111111111000 ,
b10101100010011111111111111000 0"
b10101100010011111111111111000 2"
b0 :"
b0 8"
b0 7"
b0 .
b0 B
b0 1"
b0 O"
b1001100 P"
b10010 /"
b1001 Q"
b1010 R"
b100 T"
b101100 A"
b1001100 G"
b1010000 F"
b1001000 +
b1001000 3"
b1001000 K"
0G
08
b100000 5
06
11
#15000
b1101 4
1G
b1111000 D
b1111000 P
18
16
01
#15500
b0 @
b0 0
b0 C
b0 J"
b100 V"
b0 U"
b11000000010001000 ;"
b0 B"
b0 M"
b0 ="
b1010 C"
b1100 E"
b0 <"
b100010 ?"
b110000000100010 @"
b110000000100010 I"
b110001010011000000010001000 >"
b1100010100110000000100010 H"
b1100010100110000000100010 *
b110000000100010 -
b100010 "
b0 !
b1100 '
b1010 $
b0 (
b1100010100110000000100010 ,
b1100010100110000000100010 0"
b1100010100110000000100010 2"
b1010000 P"
b10011 /"
b11000000011011000 A"
b1010000 G"
b1010100 F"
b1001100 +
b1001100 3"
b1001100 K"
b0 T"
b101000 S"
b11111 Q"
b1001 R"
0G
08
b100000 5
06
11
#16000
b1110 4
1G
b0 D
b0 P
18
16
01
#16500
b100 @
b10010000010000000 ;"
b100 0
b100 C
b100 J"
b100 ?
b0 D"
b1001 E"
b100000 ?"
b100100000100000 @"
b100100000100000 I"
b1010010010000010000000 >"
b10100100100000100000 H"
b10100100100000100000 *
b100100000100000 -
b100000 "
b1001 '
b0 %
b100 B"
b100 M"
b1 9"
b100 U"
b100 6"
b10100100100000100000 ,
b10100100100000100000 0"
b10100100100000100000 2"
b100 :"
b100 8"
b11111111111111111111111111111100 7"
b100 .
b100 B
b100 1"
b100 O"
b1010100 P"
b10100 /"
b1100 Q"
b1010 R"
b100 T"
b0 S"
b10010000011010100 A"
b1010100 G"
b1011000 F"
b1010000 +
b1010000 3"
b1010000 K"
0G
08
b100000 5
06
11
#17000
b1111 4
1G
b100 F
b100 D
b100 R
b100 P
18
16
01
#17500
b1110101 @
b1110101 0
b1110101 C
b1110101 J"
b101000 U"
b11111111111111111111111111010100 ;"
b11111111111111111111111111110101 B"
b11111111111111111111111111110101 M"
b101 ="
b1100 D"
b11111 E"
b0 :"
b0 8"
b11111 <"
b110101 ?"
b11111111111111111111111111110101 @"
b1111111111110101 I"
b110001010111111111111010100 >"
b1100010101111111111110101 H"
b1100010101111111111110101 *
b1111111111110101 -
b110101 "
b11111 !
b11111 '
b1100 %
b101 (
b10101100010101111111111110101 ,
b10101100010101111111111110101 0"
b10101100010101111111111110101 2"
b101100 P"
b10101 /"
b101100 A"
b1011000 G"
b1011100 F"
b1010100 +
b1010100 3"
b1010100 K"
b100 S"
b1001 Q"
0G
08
b100000 5
06
11
#18000
b10000 4
1G
b1110101 D
b1110101 P
18
16
01
#18500
b100 @
1=
07
0/
b11111111111111111111111100000111 &
b11111111111111111111111100000111 A
b11111111111111111111111100000111 4"
0:
09
b0 9"
b100 5"
b100 0
b100 C
b100 J"
0)
b0 7"
b100 N"
b11111111111111111111111100000111 V"
b0 U"
b0 ;"
b100 B"
b0 M"
b100011 ="
b1001 D"
b1 C"
b0 E"
b100 :"
b100 8"
b0 <"
b0 ?"
b0 @"
b0 I"
b100100001000000000000000000 >"
b1001000010000000000000000 H"
b1001000010000000000000000 *
b0 -
b0 "
b0 !
b0 '
b1 $
b1001 %
b100011 (
b10001101001000010000000000000000 ,
b10001101001000010000000000000000 0"
b10001101001000010000000000000000 2"
b110000 P"
b1011 /"
b11111 Q"
b101000 S"
b110000 A"
b110000 G"
b110100 F"
b101100 +
b101100 3"
b101100 K"
0G
08
b100000 5
06
11
#19000
b10001 4
1G
b100 D
0E
0Q
b100 P
18
16
01
#19500
b1000 @
b1000 0
b1000 C
b1000 J"
b10000 ;"
b1000 B"
b100 M"
b10 C"
b100 ?"
b100 @"
b100 I"
b100100010000000000000010000 >"
b1001000100000000000000100 H"
b1001000100000000000000100 *
b100 -
b100 "
b10 $
b100 ?
b10001101001000100000000000000100 ,
b10001101001000100000000000000100 0"
b10001101001000100000000000000100 2"
b100 6"
b110100 P"
b1100 /"
b100 :"
b100 8"
b0 7"
b100 .
b100 B
b100 1"
b100 O"
b1000100 A"
b110100 G"
b111000 F"
b110000 +
b110000 3"
b110000 K"
b11111111111111111111111100000111 T"
b0 S"
b0 Q"
b1 R"
0G
08
b100000 5
06
11
#20000
b10010 4
b11111111111111111111111111000000 V"
b11111111111111111111111111000000 &
b11111111111111111111111111000000 A
b11111111111111111111111111000000 4"
1G
b11111111111111111111111111000000 ;
b11111111111111111111111111000000 $"
b1000 &"
b1000 D
b1000 P
18
16
01
#20500
b0 @
0=
17
1/
bz &
bz A
bz 4"
1:
19
b0 0
b0 C
b0 J"
1)
b11111111111111111111111111000000 N"
b11111111111111111111111100000111 V"
b1010000010101000 ;"
b11111111111111111111111110000000 B"
b11111111111111111111111111000000 M"
b11111111111111111111111111000000 ?
b0 ="
b10 D"
b1 C"
b101 E"
b101010 ?"
b10100000101010 @"
b10100000101010 I"
b1000001001010000010101000 >"
b10000010010100000101010 H"
b10000010010100000101010 *
b10100000101010 -
b101010 "
b101 '
b1 $
b10 %
b0 (
b11111111111111111111111111000000 6"
b11111111111111111111111111000000 5"
b10000010010100000101010 ,
b10000010010100000101010 0"
b10000010010100000101010 2"
b11111111111111111111111111000000 :"
b11111111111111111111111111000000 8"
b0 7"
b11111111111111111111111111000000 .
b11111111111111111111111111000000 B
b11111111111111111111111111000000 1"
b11111111111111111111111111000000 O"
b111000 P"
b1101 /"
b10 R"
b11111111111111111111111111000000 T"
b1010000011100000 A"
b111000 G"
b111100 F"
b110100 +
b110100 3"
b110100 K"
0G
08
b100000 5
06
11
#21000
b10011 4
1G
b11111111111111111111111111000000 F
b0 D
1E
b11111111111111111111111111000000 O
1Q
b11111111111111111111111111000000 R
b0 P
18
16
01
#21500
b10 @
b0 N"
b0 V"
b1000 ;"
b100 ="
b101 D"
b0 C"
b0 E"
b10 ?"
b10 @"
b10 I"
b10100000000000000000001000 >"
b101000000000000000000010 H"
b101000000000000000000010 *
b10 -
b10 "
b0 '
b0 $
b101 %
b100 (
b10 0
b10 C
b10 J"
b0 ?
b10000101000000000000000000010 ,
b10000101000000000000000000010 0"
b10000101000000000000000000010 2"
b10 B"
b10 M"
b0 6"
b0 5"
b1000100 P"
b1110 /"
b0 :"
b0 8"
b0 7"
b0 .
b0 B
b0 1"
b0 O"
b1000100 A"
b111100 G"
b1000000 F"
b111000 +
b111000 3"
b111000 K"
b11111111111111111111111100000111 T"
b101 Q"
b1 R"
0G
08
b100000 5
06
11
#22000
b10100 4
1G
b0 F
b10 D
b0 R
b10 P
18
16
01
#22500
b1000 @
b100 ?
b100 6"
b100 5"
b1000 0
b1000 C
b1000 J"
b100 N"
b100 V"
b100 :"
b100 8"
b0 7"
b100 .
b100 B
b100 1"
b100 O"
b1000 U"
b10010000010000000 ;"
b1000 B"
b100 M"
b0 ="
b1001 D"
b1010 C"
b1001 E"
b100000 ?"
b100100000100000 @"
b100100000100000 I"
b100101010010010000010000000 >"
b1001010100100100000100000 H"
b1001010100100100000100000 *
b100100000100000 -
b100000 "
b1001 '
b1010 $
b1001 %
b0 (
b1001010100100100000100000 ,
b1001010100100100000100000 0"
b1001010100100100000100000 2"
b1001000 P"
b10001 /"
b0 Q"
b0 R"
b0 T"
b10010000011001000 A"
b1001000 G"
b1001100 F"
b1000100 +
b1000100 3"
b1000100 K"
0G
08
b100000 5
06
11
#23000
b10101 4
1G
b100 F
b1000 D
b100 R
b1000 P
18
16
01
#23500
b1000 ?
b1 9"
b1000 V"
b1000 .
b1000 B
b1000 1"
b1000 O"
b11111111111111111111111111100000 ;"
b11111111111111111111111111111000 M"
b1111000 @
b101 ="
b1100 D"
b1001 C"
b11111 E"
b0 :"
b0 8"
b11111 <"
b111000 ?"
b11111111111111111111111111111000 @"
b1111111111111000 I"
b110001001111111111111100000 >"
b1100010011111111111111000 H"
b1100010011111111111111000 *
b1111111111111000 -
b111000 "
b11111 !
b11111 '
b1001 $
b1100 %
b101 (
b10101100010011111111111111000 ,
b10101100010011111111111111000 0"
b10101100010011111111111111000 2"
b1111000 0
b1111000 C
b1111000 J"
b101000 U"
b1000 6"
b0 5"
b101100 P"
b10010 /"
b11111111111111111111111111111000 B"
b11111111111111111111111111111000 7"
b0 N"
b101100 A"
b1001100 G"
b1010000 F"
b1001000 +
b1001000 3"
b1001000 K"
b100 T"
b1000 S"
b1001 Q"
b1010 R"
0G
08
b100000 5
06
11
#24000
b10110 4
1G
b1000 F
b1111000 D
b1000 R
b1111000 P
18
16
01
#24500
b1000 @
1=
07
0/
b11111111111111111111111111000000 &
b11111111111111111111111111000000 A
b11111111111111111111111111000000 4"
0:
09
b0 9"
b1000 5"
b1000 0
b1000 C
b1000 J"
0)
b0 7"
b1000 N"
b11111111111111111111111111000000 V"
b0 U"
b0 ;"
b1000 B"
b0 M"
b100011 ="
b1001 D"
b1 C"
b0 E"
b1000 :"
b1000 8"
b0 <"
b0 ?"
b0 @"
b0 I"
b100100001000000000000000000 >"
b1001000010000000000000000 H"
b1001000010000000000000000 *
b0 -
b0 "
b0 !
b0 '
b1 $
b1001 %
b100011 (
b10001101001000010000000000000000 ,
b10001101001000010000000000000000 0"
b10001101001000010000000000000000 2"
b110000 P"
b1011 /"
b11111 Q"
b1001 R"
b1000 T"
b101000 S"
b110000 A"
b110000 G"
b110100 F"
b101100 +
b101100 3"
b101100 K"
0G
08
b100000 5
06
11
#25000
b10111 4
1G
b1000 D
0E
0Q
b1000 P
18
16
01
#25500
b1100 @
b1100 0
b1100 C
b1100 J"
b10000 ;"
b1100 B"
b100 M"
b10 C"
b100 ?"
b100 @"
b100 I"
b100100010000000000000010000 >"
b1001000100000000000000100 H"
b1001000100000000000000100 *
b100 -
b100 "
b10 $
b1000 ?
b10001101001000100000000000000100 ,
b10001101001000100000000000000100 0"
b10001101001000100000000000000100 2"
b1000 6"
b1000 5"
b110100 P"
b1100 /"
b1000 :"
b1000 8"
b0 7"
b1000 .
b1000 B
b1000 1"
b1000 O"
b1000100 A"
b110100 G"
b111000 F"
b110000 +
b110000 3"
b110000 K"
b11111111111111111111111111000000 T"
b0 S"
b0 Q"
b1 R"
0G
08
b100000 5
06
11
#26000
b11000 4
b11111111111111111111111111001001 V"
b11111111111111111111111111001001 &
b11111111111111111111111111001001 A
b11111111111111111111111111001001 4"
1G
b11111111111111111111111111001001 ;
b11111111111111111111111111001001 $"
b1100 &"
b1100 D
b1100 P
18
16
01
